<?xml version="1.0" encoding="UTF-8"?>
<svg width="69px" height="76px" viewBox="0 0 69 76" version="1.1" xmlns="http://www.w3.org/2000/svg" xmlns:xlink="http://www.w3.org/1999/xlink">
    <!-- Generator: Sketch 47.1 (45422) - http://www.bohemiancoding.com/sketch -->
    <title>Page 1</title>
    <desc>Created with Sketch.</desc>
    <defs></defs>
    <g id="Sobre---Sistran" stroke="none" stroke-width="1" fill="none" fill-rule="evenodd">
        <g id="2-Sobre" transform="translate(-364.000000, -3069.000000)" fill="#002E62">
            <g id="Group-10" transform="translate(286.000000, 2920.000000)">
                <g id="Page-1" transform="translate(78.000000, 149.000000)">
                    <path d="M33.6391277,51 C32.2042383,51 30.8590294,50.1440016 30.0519041,48.612215 C29.3792997,47.3507436 27.8995699,46.4947452 26.3748288,46.4947452 C25.8815855,46.4947452 25.3883423,46.5848503 24.9399393,46.7650605 C23.1911678,47.4859013 21.4423963,47.1705334 20.3662292,46.0442197 C19.6039442,45.2332739 19.2003815,44.1069602 19.2452218,42.7553837 C19.2900621,40.7730716 17.6758115,38.8808646 15.7476788,38.6103774 C14.1334282,38.3851147 12.9227402,37.5741688 12.3398163,36.35775 C11.7567214,35.1413312 11.9362537,33.6545971 12.7882193,32.3030207 C13.8195461,30.6360764 13.3711431,28.2032388 11.8465731,26.9868201 C10.5908737,25.995664 9.91826926,24.6891401 10.0079498,23.3373917 C10.0976304,21.9858153 10.9944363,20.814449 12.4294969,20.0485557 C14.1782685,19.1024522 15.0302341,16.7597197 14.267949,14.9576178 C13.6850252,13.4708838 13.7298655,12.0292022 14.4921505,10.9479411 C15.2544355,9.82162738 16.5996444,9.19089171 18.2587353,9.23594426 L18.3484159,9.23594426 C20.3213889,9.23594426 22.1150007,7.65893313 22.3840425,5.72167357 C22.6979245,3.46904618 24.1776543,1.9823121 26.1954676,1.9823121 C27.002764,1.9823121 27.8995699,2.25262739 28.7066953,2.74820542 C29.2896191,3.1086258 30.0519041,3.33388854 30.7693488,3.33388854 C32.0697174,3.33388854 33.3252457,2.74820542 34.0426904,1.80210191 C34.9843366,0.630735669 36.1501843,0 37.4057125,0 C38.840602,0 40.1858108,0.855998409 40.9929361,2.38778503 C41.6208714,3.60420383 43.1006012,4.46020223 44.6251712,4.46020223 C45.1184145,4.46020223 45.6116577,4.37009714 46.0600607,4.18988695 C47.8088322,3.46904618 49.5576037,3.78441402 50.6337708,4.91072771 C51.3960558,5.72167357 51.7996184,6.84798727 51.7547782,8.1995637 C51.7099379,10.1820478 53.3241885,12.0742548 55.2523212,12.3445701 C56.866743,12.5698328 58.0774309,13.3807787 58.6603548,14.5971974 C59.2432786,15.8136162 59.0639174,17.3003503 58.2119518,18.6519268 C57.180625,20.318871 57.629028,22.7517086 59.153598,23.9682994 C60.4091263,24.9594554 61.0817307,26.2659793 60.9920501,27.6175557 C60.9023695,28.9691322 60.0055636,30.1404984 58.5706742,30.9063917 C56.8219027,31.8524952 55.9697659,34.1952277 56.7322221,35.9973296 C57.3151459,37.4840637 57.2703056,38.9259172 56.5080206,40.0071783 C55.7455644,41.133492 54.4003556,41.7642277 52.7412646,41.7191751 L52.6515841,41.7191751 C50.6786111,41.7191751 48.8849993,43.2960143 48.6159575,45.2332739 C48.3020754,47.4859013 46.8223457,48.9726353 44.8045324,48.9726353 C43.9974071,48.9726353 43.1006012,48.7023201 42.2934759,48.206742 C41.710552,47.8463217 40.9480959,47.6210589 40.2306511,47.6210589 C38.9302826,47.6210589 37.6747543,48.206742 36.9573096,49.1528455 C36.0605037,50.3242118 34.894656,51 33.6391277,51 Z M26.3748288,44.1970653 C28.7515355,44.1970653 30.94871,45.5035892 32.0248771,47.4859013 C32.4732801,48.2968471 33.0113636,48.7023201 33.6391277,48.7023201 C34.1772113,48.7023201 34.7601351,48.3418997 35.2533784,47.7562166 C36.419226,46.2694825 38.3025184,45.3684315 40.3203317,45.3684315 C41.4861794,45.3684315 42.6073579,45.6837994 43.5490041,46.2694825 C43.9974071,46.5397978 44.4906503,46.720008 44.894213,46.720008 C46.104901,46.720008 46.418783,45.4585366 46.4636233,44.917906 C46.9120263,41.8092802 49.7818052,39.3764427 52.9206258,39.4665478 L53.0551467,39.4665478 C53.862272,39.4665478 54.4900362,39.1962325 54.7590779,38.745707 C55.07296,38.2950096 55.07296,37.6192213 54.7590779,36.853328 C53.5932303,33.969965 54.8935988,30.4108137 57.629028,28.9240796 C58.391313,28.5186067 58.7948756,27.9779761 58.8397159,27.4373455 C58.8845562,26.8516624 58.5258339,26.2659793 57.8980697,25.7704013 C55.4316824,23.8331417 54.7590779,20.1386608 56.4181689,17.4805605 C56.866743,16.7597197 56.9564235,16.0839315 56.7322221,15.5883535 C56.5080206,15.0477229 55.8800853,14.7323551 55.0281197,14.5971974 C51.9341393,14.146672 49.5127634,11.2633089 49.602444,8.15451116 C49.602444,7.43367039 49.4679231,6.84798727 49.1092007,6.48756689 C48.6607978,5.99198886 47.8536725,5.94693631 46.9568666,6.30735669 C46.2394218,6.57767198 45.4771368,6.75788217 44.6700115,6.75788217 C42.2934759,6.75788217 40.0961302,5.45135829 39.0199632,3.46904618 C38.5715602,2.65810032 37.9886364,2.20757484 37.3608722,2.20757484 C36.8227887,2.20757484 36.2398649,2.56799523 35.7914619,3.15367835 C34.6256142,4.64041243 32.7423218,5.54146338 30.7245085,5.54146338 C29.5586609,5.54146338 28.4376535,5.22609555 27.4960073,4.64041243 C27.0476043,4.37009714 26.5541899,4.18988695 26.1506273,4.18988695 C24.9399393,4.18988695 24.6260572,5.45135829 24.5812169,5.99198886 C24.132814,9.10078662 21.2630351,11.5336242 18.1242144,11.4435191 L18.0345338,11.4435191 C17.2274085,11.4435191 16.5996444,11.7138344 16.2857623,12.1643599 C15.9718803,12.6148853 15.9718803,13.2906736 16.2857623,14.0565669 C17.45161,16.9399299 16.1512414,20.4990812 13.4159834,21.9858153 C12.6536984,22.3912882 12.2501358,22.9319188 12.2052955,23.4725494 C12.1604552,24.0584044 12.5191775,24.6440876 13.1469417,25.1396656 C15.6131579,27.0769252 16.2857623,30.7712341 14.6266714,33.4293344 C14.1782685,34.1501752 14.0885879,34.8259634 14.3127893,35.3215414 C14.5369908,35.862172 15.1647549,36.1775398 16.0167206,36.3126975 C19.1107009,36.7632229 21.5320769,39.6467579 21.4423963,42.7553837 C21.4423963,43.4762245 21.6217575,44.0619076 21.9356395,44.422328 C22.3840425,44.917906 23.1911678,44.9629586 24.0879737,44.6025382 C24.8054184,44.3322229 25.5677034,44.1970653 26.3748288,44.1970653 Z" id="Fill-1"></path>
                    <path d="M35.5,45 C25.3115176,45 17,36.463711 17,26.0000876 C17,15.536289 25.3115176,7 35.5,7 C45.6884824,7 54,15.536289 54,26.0000876 C54,36.463711 45.733168,45 35.5,45 Z M35.5,9.29482942 C26.5180282,9.29482942 19.2342789,16.7754023 19.2342789,26.0000876 C19.2342789,35.2245977 26.5627138,42.7053457 35.5,42.7053457 C44.4819718,42.7053457 51.7657211,35.2245977 51.7657211,26.0000876 C51.7657211,16.8212954 44.4819718,9.29482942 35.5,9.29482942 Z" id="Fill-2"></path>
                    <path d="M56.3147678,73 C56.0471034,73 55.7348282,72.9082996 55.5563853,72.6790487 C48.418668,65.5720939 42.5300512,57.2732091 38.1134184,48.1029956 C37.845754,47.5527933 38.0688076,46.8650404 38.6041364,46.5899393 C39.1394652,46.3148381 39.8086262,46.5440891 40.0762906,47.0942914 C43.9575947,55.1641002 48.9539968,62.4542808 55.0210565,68.9191579 C54.8872243,65.6637942 54.9764458,62.4542808 55.2441102,59.2906175 C55.2887209,58.9696662 55.4225531,58.694565 55.6456068,58.5111643 C55.8686604,58.3277635 56.1809356,58.2360631 56.4486,58.2360631 C59.3930786,58.5570145 62.3819977,58.6487148 65.2816954,58.6028646 C60.5975684,53.5591685 56.6270429,47.9195949 53.5489023,41.6839687 C53.2812379,41.1337664 53.4596808,40.4460135 54.0396204,40.1250622 C54.5749492,39.849961 55.2441102,40.0333618 55.5563853,40.6294143 C58.9469713,47.3693926 63.3634339,53.5133183 68.6721111,58.7862654 C68.9843862,59.1072168 69.0736077,59.5657187 68.9397755,60.0242206 C68.8059433,60.4368723 68.4044467,60.7578237 67.9583394,60.7578237 C64.4787022,60.9870746 60.9544543,60.9412245 57.3855956,60.6202731 C57.117761,64.2882885 57.162542,68.0480042 57.4302064,71.7620448 C57.4748171,72.2205467 57.2071527,72.6790487 56.8054858,72.9082996 C56.6270429,73 56.4932107,73 56.3147678,73 Z" id="Fill-3"></path>
                    <path d="M12.6585756,76 C12.4805076,76 12.3469566,75.9551087 12.1688887,75.9102175 C11.7680659,75.7306525 11.5009639,75.28174 11.5454809,74.7879362 C11.8125829,71.1068534 11.8125829,67.4704906 11.5899979,63.8791904 C8.02863885,64.1934292 4.51179677,64.2383204 1.03947168,64.0138642 C0.594301795,63.9689729 0.238165888,63.6996254 0.0600979343,63.2956041 C-0.0734530308,62.8915828 0.0155809459,62.3977791 0.327199865,62.0835403 C7.31636704,55.2600698 12.8366435,46.820343 16.3534856,37.7072473 C16.5760705,37.123661 17.2438254,36.8543135 17.7780292,37.0787698 C18.3567501,37.303226 18.623852,37.9317036 18.4012671,38.5152899 C15.0624929,47.1345817 9.98738634,55.1702873 3.621457,61.9039753 C6.51506125,61.9937578 9.49769947,61.859084 12.4359906,61.5448452 C12.7476095,61.499954 13.0147115,61.5897365 13.2372964,61.8141928 C13.4598813,61.9937578 13.5934323,62.2631053 13.6379493,62.5773441 C13.9050512,65.6748405 13.9940852,68.8622908 13.8605342,72.0046785 C19.4251578,66.1686443 24.1439586,59.5696301 27.8835555,52.3868583 C28.1506574,51.8481633 28.8629292,51.623707 29.3971331,51.8930545 C29.931337,52.1624021 30.1539219,52.8806621 29.88682,53.4193571 C25.6130192,61.679519 20.0483956,69.1765296 13.4153644,75.6857612 C13.2372964,75.8653262 12.9256775,76 12.6585756,76 Z" id="Fill-4"></path>
                </g>
            </g>
        </g>
    </g>
</svg>