<?xml version="1.0" encoding="UTF-8"?>
<svg width="33px" height="64px" viewBox="0 0 33 64" version="1.1" xmlns="http://www.w3.org/2000/svg" xmlns:xlink="http://www.w3.org/1999/xlink">
    <!-- Generator: Sketch 47.1 (45422) - http://www.bohemiancoding.com/sketch -->
    <title>homem e maleta</title>
    <desc>Created with Sketch.</desc>
    <defs></defs>
    <g id="Sobre---Sistran" stroke="none" stroke-width="1" fill="none" fill-rule="evenodd">
        <g id="2-Sobre" transform="translate(-875.000000, -7110.000000)" fill="#002E62">
            <g id="Group-14" transform="translate(134.000000, 6796.000000)">
                <g id="Group-10" transform="translate(741.000000, 313.600000)">
                    <g id="homem-e-maleta" transform="translate(0.000000, 1.000000)">
                        <path d="M11.4314,21.2749 C5.9945,21.2749 2.0941,14.1439 2.0941,9.3373 C2.0941,4.1762 6.2703,0 11.4314,0 C16.5532,0 20.7294,4.1762 20.7294,9.3373 C20.7294,14.1439 16.829,21.2749 11.4314,21.2749 Z M11.4314,1.9699 C7.3734,1.9699 4.064,5.2793 4.064,9.3373 C4.064,13.6711 7.6098,19.305 11.4314,19.305 C15.2136,19.305 18.7989,13.6711 18.7989,9.3373 C18.7595,5.2793 15.4894,1.9699 11.4314,1.9699 Z" id="Fill-1"></path>
                        <path d="M5.7187,43.2196 L2.2517,43.2196 C1.7395,43.2196 1.3061,42.8257 1.2667,42.3135 L0.006,25.6875 C-0.0334,25.3723 0.1242,25.0177 0.4,24.8207 C0.5576,24.7026 4.064,22.1023 11.4314,22.1023 C18.7595,22.1023 22.3053,24.7026 22.4629,24.8207 C22.6599,24.9783 22.7781,25.1753 22.8175,25.4117 L26.0087,40.8558 C26.1269,41.4073 25.7723,41.9195 25.2602,42.0377 C24.748,42.1559 24.1964,41.8013 24.0782,41.2891 L20.9658,26.2391 C20.0596,25.6875 16.9078,24.1116 11.4314,24.1116 C6.1915,24.1116 3.1184,25.5299 2.0153,26.1603 L3.1578,41.2497 L5.7187,41.2497 C6.2703,41.2497 6.7037,41.6831 6.7037,42.2347 C6.7037,42.7863 6.2703,43.2196 5.7187,43.2196 Z" id="Fill-2"></path>
                        <path d="M15.0167,62.5641 L7.8068,62.5641 C7.2946,62.5641 6.9007,62.1701 6.8219,61.6973 L4.7338,42.3529 C4.6944,41.8013 5.0489,41.3285 5.6005,41.2497 C6.1521,41.2103 6.6249,41.5649 6.7037,42.1165 L8.713,60.5942 L14.1499,60.5942 L16.1592,42.1165 C16.1986,41.5649 16.7108,41.1709 17.2623,41.2497 C17.8139,41.2891 18.2079,41.8013 18.1291,42.3529 L16.041,61.6973 C15.9622,62.2095 15.5288,62.5641 15.0167,62.5641 Z" id="Fill-3"></path>
                        <path d="M28.412,58.5849 C28.3332,58.5849 28.2544,58.5849 28.1756,58.5455 L19.311,56.1816 C18.8777,56.0634 18.5625,55.6694 18.5625,55.2361 L18.5625,45.7017 C18.5625,45.1502 18.9959,44.7168 19.5474,44.7168 L28.412,44.7168 C28.9636,44.7168 29.397,45.1502 29.397,45.7017 L29.397,57.6393 C29.397,57.9545 29.2394,58.2303 29.003,58.4273 C28.8454,58.5061 28.609,58.5849 28.412,58.5849 Z M20.5324,54.4875 L27.4271,56.3392 L27.4271,46.6867 L20.5324,46.6867 L20.5324,54.4875 Z" id="Fill-4"></path>
                        <path d="M26.5997,46.6867 C26.5603,46.6867 26.5209,46.6867 26.4815,46.6867 C25.9299,46.6473 25.5359,46.1351 25.6147,45.5835 C25.7329,44.5198 25.6541,42.6681 25.1814,42.1165 C25.1026,42.0377 25.1026,42.0377 25.0238,42.0377 C24.945,42.0377 24.9056,42.0377 24.8662,42.1165 C24.354,42.6681 24.2752,44.5198 24.354,45.5835 C24.3934,46.1351 23.9994,46.6079 23.4478,46.6473 C22.8963,46.6867 22.4235,46.2927 22.3841,45.7411 C22.3447,45.1502 22.1477,42.1559 23.4084,40.777 C23.8418,40.3042 24.3934,40.0678 25.0238,40.0678 C25.6541,40.0678 26.2057,40.3042 26.6391,40.8164 C27.8998,42.1953 27.624,45.2289 27.5846,45.8199 C27.5452,46.2927 27.1119,46.6867 26.5997,46.6867 Z" id="Fill-5"></path>
                        <path d="M31.4063,58.5849 L28.412,58.5849 C27.8604,58.5849 27.4271,58.1515 27.4271,57.5999 L27.4271,45.7017 C27.4271,45.1502 27.8604,44.7168 28.412,44.7168 L31.4063,44.7168 C31.9578,44.7168 32.3912,45.1502 32.3912,45.7017 L32.3912,57.6393 C32.3912,58.1515 31.9578,58.5849 31.4063,58.5849 Z M29.397,56.615 L30.4213,56.615 L30.4213,46.6473 L29.397,46.6473 L29.397,56.615 Z" id="Fill-6"></path>
                    </g>
                </g>
            </g>
        </g>
    </g>
</svg>