<?xml version="1.0" encoding="UTF-8"?>
<svg width="55px" height="55px" viewBox="0 0 55 55" version="1.1" xmlns="http://www.w3.org/2000/svg" xmlns:xlink="http://www.w3.org/1999/xlink">
    <!-- Generator: Sketch 47.1 (45422) - http://www.bohemiancoding.com/sketch -->
    <title>a-z</title>
    <desc>Created with Sketch.</desc>
    <defs></defs>
    <g id="Sobre---Sistran" stroke="none" stroke-width="1" fill="none" fill-rule="evenodd">
        <g id="2-Sobre" transform="translate(-864.000000, -7318.000000)" fill="#002E62">
            <g id="Group-14" transform="translate(134.000000, 6796.000000)">
                <g id="Group-13" transform="translate(730.000000, 522.000000)">
                    <g id="a-z">
                        <path d="M50.5627544,50.0728684 L34.2917281,50.0728684 C33.9067281,50.0728684 33.5918772,49.7579211 33.5918772,49.3730175 C33.5918772,48.988114 33.9067281,48.6731667 34.2917281,48.6731667 L50.5976842,48.6731667 C52.0673421,48.6731667 53.2921053,47.4485 53.2921053,45.9788421 L53.2921053,9.83264912 C53.2921053,8.36299123 52.0673421,7.13822807 50.5976842,7.13822807 L49.1980789,7.13822807 C48.8131754,7.13822807 48.4982281,6.82337719 48.4982281,6.43847368 C48.4982281,6.05347368 48.8131754,5.73862281 49.1980789,5.73862281 L50.5976842,5.73862281 C52.8721754,5.73862281 54.6917105,7.55815789 54.6917105,9.83264912 L54.6917105,45.9438158 C54.6567807,48.218307 52.8371491,50.0728684 50.5627544,50.0728684 Z" id="Fill-1"></path>
                        <path d="M29.3928684,50.0728684 L4.09402632,50.0728684 C1.81953509,50.0728684 0,48.218307 0,45.9788421 L0,9.83264912 C0,7.55815789 1.81953509,5.73862281 4.09402632,5.73862281 L5.49363158,5.73862281 C5.87853509,5.73862281 6.19348246,6.05347368 6.19348246,6.43847368 C6.19348246,6.82337719 5.87853509,7.13822807 5.49363158,7.13822807 L4.09402632,7.13822807 C2.62436842,7.13822807 1.39970175,8.36299123 1.39970175,9.83264912 L1.39970175,45.9438158 C1.39970175,47.4134737 2.62436842,48.6382368 4.09402632,48.6382368 L29.3928684,48.6382368 C29.7777719,48.6382368 30.0927193,48.9530877 30.0927193,49.3379912 C30.0927193,49.7579211 29.7777719,50.0728684 29.3928684,50.0728684 Z" id="Fill-2"></path>
                        <path d="M29.3928684,54.4117895 L25.2639123,54.4117895 C24.8790088,54.4117895 24.5640614,54.0968421 24.5640614,53.7119386 L24.5640614,49.3730175 C24.5640614,48.988114 24.8790088,48.6731667 25.2639123,48.6731667 L29.3928684,48.6731667 C29.7777719,48.6731667 30.0927193,48.988114 30.0927193,49.3730175 L30.0927193,53.7119386 C30.0927193,54.0968421 29.7777719,54.4117895 29.3928684,54.4117895 Z M25.9636667,53.0120877 L28.6930175,53.0120877 L28.6930175,50.0727719 L25.9636667,50.0727719 L25.9636667,53.0120877 Z" id="Fill-3"></path>
                        <path d="M39.5054386,54.4117895 L15.1513421,54.4117895 C14.7664386,54.4117895 14.4514912,54.0968421 14.4514912,53.7119386 C14.4514912,53.3270351 14.7664386,53.0120877 15.1513421,53.0120877 L39.4704123,53.0120877 C39.8553158,53.0120877 40.1702632,53.3270351 40.1702632,53.7119386 C40.2052895,54.0968421 39.8903421,54.4117895 39.5054386,54.4117895 Z" id="Fill-4"></path>
                        <path d="M5.63364035,33.1369211 C5.49363158,33.1369211 5.3537193,33.1019912 5.21371053,32.9970088 C5.03877193,32.857 4.93378947,32.6470351 4.93378947,32.4371667 L4.93378947,4.09402632 C4.93378947,3.84903509 5.03877193,3.63907018 5.24873684,3.53408772 C5.45870175,3.35914912 10.3225351,0 16.5509474,0 C22.7794561,0 27.6783158,3.35914912 27.8882807,3.49915789 C28.0632193,3.63907018 28.2031316,3.84903509 28.2031316,4.059 L28.2031316,32.4021404 C28.2031316,32.6121053 28.0981491,32.8220702 27.9232105,32.9619825 C27.7482719,33.1019912 27.5032807,33.1369211 27.2934123,33.0669649 C27.2233596,33.0669649 20.8199123,31.1424474 16.5509474,31.1424474 C12.3170088,31.1424474 5.87853509,33.0669649 5.84360526,33.1019912 C5.77355263,33.1369211 5.70359649,33.1369211 5.63364035,33.1369211 Z M16.5509474,29.7427456 C20.0851316,29.7427456 24.8089561,30.9675088 26.7685,31.4923246 L26.7685,4.47892982 C25.6837456,3.77907895 21.5197632,1.39960526 16.5509474,1.39960526 C11.6171579,1.39960526 7.45317544,3.77907895 6.33349123,4.47892982 L6.33349123,31.4923246 C8.29303509,30.9675088 13.0517895,29.7427456 16.5509474,29.7427456 Z" id="Fill-5"></path>
                        <path d="M27.5032807,33.1369211 C27.3633684,33.1369211 27.2233596,33.1019912 27.0834474,32.9970088 C26.9085088,32.857 26.8035263,32.6470351 26.8035263,32.4371667 L26.8035263,4.09402632 C26.8035263,3.84903509 26.9085088,3.63907018 27.1183772,3.53408772 C27.2934123,3.35914912 32.1921754,0 38.4206842,0 C44.649193,0 49.5479561,3.35914912 49.7579211,3.49915789 C49.9328596,3.63907018 50.0728684,3.84903509 50.0728684,4.059 L50.0728684,32.4021404 C50.0728684,32.6121053 49.967886,32.8220702 49.7929474,32.9619825 C49.6180088,33.1019912 49.3730175,33.1369211 49.1630526,33.0669649 C49.0930965,33.0319386 42.6896491,31.1074211 38.4557105,31.1074211 C34.2216754,31.1074211 27.7832982,33.0319386 27.7482719,33.0669649 C27.6432895,33.1369211 27.5733333,33.1369211 27.5032807,33.1369211 Z M38.4206842,29.7427456 C41.9548684,29.7427456 46.678693,30.9675088 48.6382368,31.4923246 L48.6382368,4.47892982 C47.5184561,3.77907895 43.3544737,1.39960526 38.4206842,1.39960526 C33.4868947,1.39960526 29.3229123,3.77907895 28.2031316,4.47892982 L28.2031316,31.4923246 C30.1626754,30.9675088 34.8865,29.7427456 38.4206842,29.7427456 Z" id="Fill-6"></path>
                        <path d="M51.2975351,35.3064298 L3.53418421,35.3064298 C3.1492807,35.3064298 2.83433333,34.9914825 2.83433333,34.6065789 L2.83433333,9.13279825 C2.83433333,8.74789474 3.1492807,8.43294737 3.53418421,8.43294737 L5.63364035,8.43294737 C6.01854386,8.43294737 6.33349123,8.74789474 6.33349123,9.13279825 C6.33349123,9.51770175 6.01854386,9.83264912 5.63364035,9.83264912 L4.2339386,9.83264912 L4.2339386,33.9067281 L50.5627544,33.9067281 L50.5627544,9.83264912 L49.3379912,9.83264912 C48.9530877,9.83264912 48.6382368,9.51770175 48.6382368,9.13279825 C48.6382368,8.74789474 48.9530877,8.43294737 49.3379912,8.43294737 L51.2626053,8.43294737 C51.6475088,8.43294737 51.9623596,8.74789474 51.9623596,9.13279825 L51.9623596,34.6065789 C51.997386,34.9914825 51.6824386,35.3064298 51.2975351,35.3064298 Z" id="Fill-7"></path>
                        <path d="M19.2453684,12.946807 C19.0703333,12.946807 18.8604649,12.8768509 18.7554825,12.7369386 L16.2010702,10.1125702 L13.331807,12.7718684 C13.1218421,12.946807 12.8419211,13.0168596 12.562,12.9118772 C12.3170088,12.8068947 12.1420702,12.5619035 12.1420702,12.2819825 L12.1420702,1.08475439 C12.1420702,0.699850877 12.4570175,0.384903509 12.8419211,0.384903509 C13.2268246,0.384903509 13.5416754,0.699850877 13.5416754,1.08475439 L13.5416754,10.637386 L15.7111842,8.60788596 C15.9911053,8.36299123 16.4110351,8.36299123 16.6909561,8.64291228 L18.5455175,10.4974737 L18.5455175,1.08475439 C18.5455175,0.699850877 18.8604649,0.384903509 19.2453684,0.384903509 C19.6302719,0.384903509 19.9451228,0.699850877 19.9451228,1.08475439 L19.9451228,12.2470526 C19.9451228,12.5269737 19.7701842,12.7718684 19.5252895,12.9118772 C19.420307,12.9118772 19.3153246,12.946807 19.2453684,12.946807 Z" id="Fill-8"></path>
                        <path d="M18.8254386,26.2435877 C18.4405351,26.2435877 18.1255877,25.9287368 18.1255877,25.5438333 L18.1255877,17.3557807 C18.1255877,16.4809912 17.4257368,15.7811404 16.5509474,15.7811404 C15.6761579,15.7811404 14.9764035,16.4809912 14.9764035,17.3557807 L14.9764035,25.5438333 C14.9764035,25.9287368 14.6614561,26.2435877 14.2765526,26.2435877 C13.8916491,26.2435877 13.5767018,25.9287368 13.5767018,25.5438333 L13.5767018,17.3557807 C13.5767018,15.7111842 14.9063509,14.3815351 16.5509474,14.3815351 C18.1955439,14.3815351 19.5252895,15.7111842 19.5252895,17.3557807 L19.5252895,25.5438333 C19.5252895,25.9287368 19.2103421,26.2435877 18.8254386,26.2435877 Z" id="Fill-9"></path>
                        <path d="M14.3114825,22.7444298 C13.9265789,22.7444298 13.6117281,22.4295789 13.6117281,22.0446754 C13.6117281,21.6597719 13.9265789,21.3448246 14.3114825,21.3448246 L18.8254386,21.3448246 C19.2103421,21.3448246 19.5252895,21.6597719 19.5252895,22.0446754 C19.5252895,22.4295789 19.2103421,22.7444298 18.8254386,22.7444298 L14.3114825,22.7444298 Z" id="Fill-10"></path>
                        <path d="M40.3802281,26.2435877 L35.4464386,26.2435877 C35.2014474,26.2435877 34.9565526,26.1036754 34.8515702,25.8937105 C34.7115614,25.6837456 34.7115614,25.4038246 34.8515702,25.1938596 L39.9252719,15.7811404 L36.4611404,15.7811404 C36.0762368,15.7811404 35.7612895,15.466193 35.7612895,15.0812895 C35.7612895,14.696386 36.0762368,14.3815351 36.4611404,14.3815351 L41.1150088,14.3815351 C41.36,14.3815351 41.6048947,14.5214474 41.7098772,14.7314123 C41.849886,14.9413772 41.849886,15.2212982 41.7098772,15.4312632 L36.6360789,24.8439825 L40.3802281,24.8439825 C40.7651316,24.8439825 41.0800789,25.1589298 41.0800789,25.5438333 C41.0800789,25.9287368 40.8000614,26.2435877 40.3802281,26.2435877 Z" id="Fill-11"></path>
                    </g>
                </g>
            </g>
        </g>
    </g>
</svg>