<?xml version="1.0" encoding="UTF-8"?>
<svg width="40px" height="36px" viewBox="0 0 40 36" version="1.1" xmlns="http://www.w3.org/2000/svg" xmlns:xlink="http://www.w3.org/1999/xlink">
    <!-- Generator: Sketch 47.1 (45422) - http://www.bohemiancoding.com/sketch -->
    <title>Page 1</title>
    <desc>Created with Sketch.</desc>
    <defs></defs>
    <g id="Sobre---Sistran" stroke="none" stroke-width="1" fill="none" fill-rule="evenodd">
        <g id="2-Sobre" transform="translate(-883.000000, -2420.000000)" fill="#F3A83A">
            <g id="Group-9" transform="translate(140.000000, 2111.000000)">
                <g id="Group" transform="translate(741.000000, 309.000000)">
                    <g id="Page-1" transform="translate(2.000000, 0.000000)">
                        <g id="Group-3">
                            <path d="M36.8760745,34.75 L35.5245217,34.75 C35.5729689,34.1255 35.5463851,33.499 35.4353292,32.88225 C34.9347081,30.09725 32.855205,27.82625 30.1384348,27.09675 C28.2571925,26.59175 26.2922236,26.85425 24.6060124,27.836 C22.920795,28.81775 21.7158261,30.401 21.2142112,32.2945 C21.0002981,33.102 20.9242733,33.9265 20.9878758,34.75 L12.8134658,34.75 C12.7786832,33.46 12.9039006,32.171 13.1901118,30.91275 C13.2507329,30.6475 13.1334658,30.373 12.8999255,30.23475 L8.62091925,27.6995 L10.5483727,23.531 L15.1217888,25.14925 C15.349118,25.22925 15.6032795,25.1705 15.7722236,24.99625 L18.9043975,21.76975 C19.0703602,21.599 19.1247702,21.34875 19.0455155,21.124 L17.4417888,16.5755 L21.5848944,14.6285 L24.0062609,18.74775 C24.1441491,18.98275 24.417441,19.09975 24.6822857,19.03825 C26.1150807,18.7015 27.5744596,18.5745 29.0194286,18.661 C29.2907329,18.6755 29.5424099,18.513 29.6380621,18.2555 L31.306882,13.75925 L35.7225342,14.9445 L34.9456398,19.6805 C34.9011677,19.95125 35.0375652,20.2195 35.2815404,20.34175 C36.4651429,20.9345 37.5672547,21.68725 38.5647702,22.57925 L38.5647702,33.05125 C38.5647702,33.98775 37.8072547,34.75 36.8760745,34.75 M22.4147081,32.6165 C22.8306087,31.046 23.8301118,29.73225 25.2286211,28.91775 C26.6271304,28.103 28.2576894,27.88575 29.8181863,28.3045 C32.0720994,28.90975 33.7975652,30.794 34.2129689,33.10525 C34.3108571,33.64825 34.3297391,34.2005 34.2783106,34.75 L22.2355776,34.75 C22.1694907,34.03525 22.2283727,33.3185 22.4147081,32.6165 M1.24228571,33.05125 L1.24228571,9.99225 L38.5647702,9.99225 L38.5647702,20.953 C37.8335901,20.38075 37.0581863,19.87225 36.2447702,19.43525 L37.0400497,14.5885 C37.0919752,14.27125 36.8959503,13.96575 36.5873789,13.88275 L31.0827826,12.40525 C30.7732174,12.3225 30.452472,12.489 30.3406708,12.7905 L28.6325963,17.392 C27.3689938,17.35275 26.099677,17.46375 24.8467578,17.7225 L22.3672547,13.504 C22.2045217,13.227 21.8591801,13.12 21.5699876,13.25575 L16.4050186,15.683 C16.1150807,15.81925 15.9754534,16.155 16.0822857,16.4585 L17.7456398,21.17475 L15.1602981,23.83775 L10.429118,22.16375 C10.1287453,22.05725 9.79532919,22.198 9.65992547,22.48975 L7.2564472,27.6865 C7.12154037,27.97825 7.22886957,28.3255 7.50439752,28.48875 L11.8837764,31.08325 C11.643528,32.28975 11.5391801,33.5195 11.5699876,34.75 L2.93048447,34.75 C1.99930435,34.75 1.24228571,33.98775 1.24228571,33.05125 M2.93048447,1.38425 L36.8760745,1.38425 C37.8072547,1.38425 38.5647702,2.14625 38.5647702,3.083 L38.5647702,8.74225 L1.24228571,8.74225 L1.24228571,3.083 C1.24228571,2.14625 1.99930435,1.38425 2.93048447,1.38425 M39.8070062,22.06175 L39.8070062,3.083 C39.8070062,1.457 38.4919752,0.13425 36.8760745,0.13425 L2.93048447,0.13425 C1.31458385,0.13425 4.9689441e-05,1.457 4.9689441e-05,3.083 L4.9689441e-05,33.05125 C4.9689441e-05,34.67725 1.31458385,36 2.93048447,36 L36.8760745,36 C38.4919752,36 39.8070062,34.67725 39.8070062,33.05125 L39.8070062,22.7145 C39.930236,22.514 39.9275031,22.26125 39.8070062,22.06175" id="Fill-1"></path>
                        </g>
                        <path d="M5.50025716,5.28578776 C5.61829247,5.28578776 5.71421224,5.38170753 5.71421224,5.49974284 C5.71421224,5.61803532 5.61829247,5.71421224 5.50025716,5.71421224 C5.38170753,5.71421224 5.28578776,5.61803532 5.28578776,5.49974284 C5.28578776,5.38170753 5.38170753,5.28578776 5.50025716,5.28578776 M5.50025716,7 C6.32701869,7 7,6.32701869 7,5.49974284 C7,4.67272416 6.32701869,4 5.50025716,4 C4.67298131,4 4,4.67272416 4,5.49974284 C4,6.32701869 4.67298131,7 5.50025716,7" id="Fill-4"></path>
                        <path d="M9.49974284,5.28578776 C9.61777816,5.28578776 9.71421224,5.38170753 9.71421224,5.49974284 C9.71421224,5.61803532 9.61777816,5.71421224 9.49974284,5.71421224 C9.38170753,5.71421224 9.28578776,5.61803532 9.28578776,5.49974284 C9.28578776,5.38170753 9.38170753,5.28578776 9.49974284,5.28578776 M9.49974284,7 C10.3270187,7 11,6.32701869 11,5.49974284 C11,4.67272416 10.3270187,4 9.49974284,4 C8.672467,4 8,4.67272416 8,5.49974284 C8,6.32701869 8.672467,7 9.49974284,7" id="Fill-6"></path>
                        <path d="M14.4997428,5.28578776 C14.6177782,5.28578776 14.7142122,5.38170753 14.7142122,5.49974284 C14.7142122,5.61803532 14.6177782,5.71421224 14.4997428,5.71421224 C14.3817075,5.71421224 14.2857878,5.61803532 14.2857878,5.49974284 C14.2857878,5.38170753 14.3817075,5.28578776 14.4997428,5.28578776 M14.4997428,7 C15.3270187,7 16,6.32701869 16,5.49974284 C16,4.67272416 15.3270187,4 14.4997428,4 C13.672467,4 13,4.67272416 13,5.49974284 C13,6.32701869 13.672467,7 14.4997428,7" id="Fill-8"></path>
                    </g>
                </g>
            </g>
        </g>
    </g>
</svg>