<?xml version="1.0" encoding="UTF-8"?>
<svg width="38px" height="33px" viewBox="0 0 38 33" version="1.1" xmlns="http://www.w3.org/2000/svg" xmlns:xlink="http://www.w3.org/1999/xlink">
    <!-- Generator: Sketch 47.1 (45422) - http://www.bohemiancoding.com/sketch -->
    <title>Servicos</title>
    <desc>Created with Sketch.</desc>
    <defs></defs>
    <g id="Sobre---Sistran" stroke="none" stroke-width="1" fill="none" fill-rule="evenodd">
        <g id="2-Sobre" transform="translate(-884.000000, -2626.000000)" fill="#F3A83A">
            <g id="Group-9" transform="translate(140.000000, 2111.000000)">
                <g id="Group" transform="translate(741.000000, 309.000000)">
                    <g id="Servicos" transform="translate(3.000000, 206.000000)">
                        <path d="M12.5,15 C8.90787567,15 6,11.5908845 6,7.5 C6,3.40911552 8.90787567,0 12.5,0 C16.0921243,0 19,3.40911552 19,7.5 C19,11.5908845 16.0921243,15 12.5,15 Z M12.5,1.87502256 C9.76318649,1.87502256 7.71053108,4.43181408 7.71053108,7.6704648 C7.71053108,10.7386507 9.93424866,13.465907 12.5,13.465907 C15.2368135,13.465907 17.2894689,10.9091155 17.2894689,7.6704648 C17.2894689,4.43181408 15.0657513,1.87502256 12.5,1.87502256 Z" id="Fill-2"></path>
                        <path d="M23.7653458,33 L1.40834818,33 C0.88441818,33 0.535069865,32.667571 0.535069865,32.1690155 L0.0110473922,25.1883588 C-0.163626765,22.8615319 1.7576965,20.202276 4.02836808,19.3712036 C9.44289708,17.5429321 15.5561227,17.5429321 20.9707442,19.3712036 C23.4159975,20.202276 25.1626466,22.8615319 24.9879724,25.1883588 L24.4640424,32.1690155 C24.6386241,32.667571 24.2893683,33 23.7653458,33 Z M2.10704481,31.3379431 L23.0666491,31.3379431 L23.5906716,25.1883588 C23.7653458,23.8587309 22.368045,21.6981185 20.6213959,21.0332605 C15.5561227,19.3712036 9.96691956,19.3712036 4.72697224,21.0332605 C2.98032313,21.6981185 1.7576965,23.6925164 1.7576965,25.1883588 L2.10704481,31.3379431 Z" id="Fill-3"></path>
                        <path d="M23.7653458,33 L1.40834818,33 C0.88441818,33 0.535069865,32.667571 0.535069865,32.1690155 L0.0110473922,25.1883588 C-0.163626765,22.8615319 1.7576965,20.202276 4.02836808,19.3712036 C9.44289708,17.5429321 15.5561227,17.5429321 20.9707442,19.3712036 C23.4159975,20.202276 25.1626466,22.8615319 24.9879724,25.1883588 L24.4640424,32.1690155 C24.6386241,32.667571 24.2893683,33 23.7653458,33 Z M2.10704481,31.3379431 L23.0666491,31.3379431 L23.5906716,25.1883588 C23.7653458,23.8587309 22.368045,21.6981185 20.6213959,21.0332605 C15.5561227,19.3712036 9.96691956,19.3712036 4.72697224,21.0332605 C2.98032313,21.6981185 1.7576965,23.6925164 1.7576965,25.1883588 L2.10704481,31.3379431 Z" id="Fill-4"></path>
                        <path d="M36.6565652,33 L28.1654338,33 C27.6659244,33 27.3330063,32.6708662 27.3330063,32.1772527 C27.3330063,31.683552 27.6659244,31.3544182 28.1654338,31.3544182 L35.9906407,31.3544182 L36.323647,26.2531932 C36.323647,25.101225 35.3246282,23.4557304 33.9926912,22.7974628 C31.9947416,22.1391953 29.9968802,21.8101486 27.8324276,21.6455818 C27.3330063,21.6455818 27,21.316448 27,20.8227473 C27,20.3291338 27.3330063,20 27.8324276,20 C30.1633834,20 32.3277479,20.4937007 34.4922006,21.1518811 C36.490062,21.8101486 38.1550053,24.1139108 37.9885021,26.2531932 L37.655584,32.1772527 C37.4890809,32.6708662 37.1560746,33 36.6565652,33 Z" id="Fill-5"></path>
                        <path d="M30.500047,16 C27.4839255,16 25,13.2571584 25,10 C25,6.74284158 27.4839255,4 30.500047,4 C33.5161684,4 36,6.74284158 36,10 C36,13.4285974 33.5161684,16 30.500047,16 Z M30.500047,5.71429868 C28.3709814,5.71429868 26.7742057,7.6000363 26.7742057,10 C26.7742057,12.3999637 28.3709814,14.2857013 30.500047,14.2857013 C32.6290186,14.2857013 34.2257943,12.3999637 34.2257943,10 C34.2257943,7.6000363 32.4515887,5.71429868 30.500047,5.71429868 Z" id="Fill-6"></path>
                    </g>
                </g>
            </g>
        </g>
    </g>
</svg>