<?xml version="1.0" encoding="UTF-8"?>
<svg width="34px" height="32px" viewBox="0 0 34 32" version="1.1" xmlns="http://www.w3.org/2000/svg" xmlns:xlink="http://www.w3.org/1999/xlink">
    <!-- Generator: Sketch 47.1 (45422) - http://www.bohemiancoding.com/sketch -->
    <title>ERP</title>
    <desc>Created with Sketch.</desc>
    <defs></defs>
    <g id="Sobre---Sistran" stroke="none" stroke-width="1" fill="none" fill-rule="evenodd">
        <g id="2-Sobre" transform="translate(-892.000000, -1568.000000)" stroke-width="0.3" stroke="#F3A83A" fill="#F3A83A">
            <g id="Implementacao" transform="translate(893.000000, 1569.000000)">
                <g id="ERP">
                    <path d="M24.6339755,30 L8.36646077,30 C7.61320581,30 7,29.392683 7,28.6466618 C7,27.9002085 7.61320581,27.2935396 8.36646077,27.2935396 C8.3762773,27.2935396 8.38587568,27.2935396 8.39569221,27.2944038 C8.42296034,27.2948359 11.2154355,27.4220895 12.5742612,26.1430725 C13.0587614,25.6874227 13.2943581,25.1131614 13.2943581,24.3880971 C13.2943581,24.0564601 13.3329698,23.728712 13.4095387,23.4139269 C13.4799995,23.1239876 13.7749317,22.9459623 14.0674642,23.0150983 C14.3602149,23.0850986 14.5404028,23.3767663 14.4699419,23.6667056 C14.413006,23.9019842 14.3850835,24.137911 14.3850835,24.3880971 C14.3850835,25.4123909 14.0277618,26.2673014 13.3227169,26.928847 C11.6707043,28.4800871 8.65353969,28.3871856 8.35686238,28.3737904 C8.20917817,28.3787596 8.09072539,28.4995316 8.09072539,28.6466618 C8.09072539,28.7974648 8.21441365,28.9197492 8.36646077,28.9197492 L24.6339755,28.9197492 C24.7858045,28.9197492 24.9092746,28.7974648 24.9092746,28.6466618 C24.9092746,28.5014761 24.7949666,28.3830806 24.651209,28.3742225 C24.2746906,28.4049017 21.1859744,28.5995629 19.4706997,27.0513474 C18.7218076,26.3757586 18.3422352,25.4793664 18.3422352,24.3880971 C18.3422352,24.1342381 18.3169304,23.8939904 18.2647937,23.6543907 C18.2013135,23.362723 18.3882638,23.0753763 18.6829778,23.0125057 C18.9768192,22.9487709 19.2673885,23.1350061 19.3308687,23.4264578 C19.3987118,23.7380021 19.4329606,24.0612132 19.4329606,24.3880971 C19.4329606,25.1738715 19.6855726,25.7835651 20.2051941,26.252826 C21.6429884,27.5504233 24.5543526,27.2980767 24.583584,27.2954841 C24.6003812,27.2944038 24.6171784,27.2935396 24.6339755,27.2935396 C25.3872305,27.2935396 26,27.9002085 26,28.6466618 C26,29.392683 25.3872305,30 24.6339755,30 Z" id="Fill-1"></path>
                    <path d="M30.640652,23.9130545 L18.5120664,23.9130545 C18.2122441,23.9130545 17.9693033,23.6689091 17.9693033,23.3676 C17.9693033,23.0662909 18.2122441,22.8221455 18.5120664,22.8221455 L30.640652,22.8221455 C31.2237967,22.8221455 31.6977375,22.3452 31.6977375,21.7598182 L31.6977375,2.23974545 C31.6977375,1.65414545 31.2237967,1.17785455 30.640652,1.17785455 L2.14254671,1.17785455 C1.55983618,1.17785455 1.08546118,1.65414545 1.08546118,2.23974545 L1.08546118,21.7598182 C1.08546118,22.3452 1.55983618,22.8221455 2.14254671,22.8221455 L15.7561322,22.8221455 C16.0559546,22.8221455 16.2988954,23.0662909 16.2988954,23.3676 C16.2988954,23.6689091 16.0559546,23.9130545 15.7561322,23.9130545 L2.14254671,23.9130545 C0.961276974,23.9130545 -6.51315789e-05,22.9469455 -6.51315789e-05,21.7598182 L-6.51315789e-05,2.23974545 C-6.51315789e-05,1.05261818 0.961276974,0.0869454545 2.14254671,0.0869454545 L30.640652,0.0869454545 C31.8221388,0.0869454545 32.7832638,1.05261818 32.7832638,2.23974545 L32.7832638,21.7598182 C32.7832638,22.9469455 31.8221388,23.9130545 30.640652,23.9130545" id="Fill-3"></path>
                    <path d="M4,18 L29,18 L29,4 L4,4 L4,18 Z M29.4777159,19 L3.52228412,19 C3.23377437,19 3,18.7746082 3,18.4964436 L3,3.50355637 C3,3.22539183 3.23377437,3 3.52228412,3 L29.4777159,3 C29.7662256,3 30,3.22539183 30,3.50355637 L30,18.4964436 C30,18.7746082 29.7662256,19 29.4777159,19 L29.4777159,19 Z" id="Fill-6"></path>
                    <path d="M19.4625472,22 L13.5374528,22 C13.2407788,22 13,21.7762 13,21.5 C13,21.2238 13.2407788,21 13.5374528,21 L19.4625472,21 C19.7594361,21 20,21.2238 20,21.5 C20,21.7762 19.7594361,22 19.4625472,22" id="Fill-8"></path>
                </g>
            </g>
        </g>
    </g>
</svg>