<?xml version="1.0" encoding="UTF-8"?>
<svg width="55px" height="44px" viewBox="0 0 55 44" version="1.1" xmlns="http://www.w3.org/2000/svg" xmlns:xlink="http://www.w3.org/1999/xlink">
    <!-- Generator: Sketch 47.1 (45422) - http://www.bohemiancoding.com/sketch -->
    <title>grafico</title>
    <desc>Created with Sketch.</desc>
    <defs></defs>
    <g id="Sobre---Sistran" stroke="none" stroke-width="1" fill="none" fill-rule="evenodd">
        <g id="2-Sobre" transform="translate(-864.000000, -7028.000000)" fill="#002E62">
            <g id="Group-14" transform="translate(134.000000, 6796.000000)">
                <g id="Group-9" transform="translate(730.000000, 228.400000)">
                    <g id="grafico" transform="translate(0.000000, 4.000000)">
                        <path d="M44.3828733,38.9156533 L20.2410267,38.9156533 C19.90318,38.9156533 19.6267133,38.63926 19.6267133,38.30134 C19.6267133,37.9634933 19.90318,37.6871 20.2410267,37.6871 L44.3828733,37.6871 C45.67288,37.6871 46.7478733,36.6120333 46.7478733,35.3220267 L46.7478733,8.93801333 C46.7478733,8.60016667 47.02434,8.3237 47.3621867,8.3237 C47.7000333,8.3237 47.9765,8.60016667 47.9765,8.93801333 L47.9765,35.3220267 C47.9765,37.2878 46.3793,38.9156533 44.3828733,38.9156533 Z" id="Fill-1"></path>
                        <path d="M17.0774267,38.9156533 L3.59362667,38.9156533 C1.5972,38.9156533 0,37.2878 0,35.3220267 L0,3.59362667 C0,1.62792667 1.5972,-7.10542736e-15 3.59362667,-7.10542736e-15 L44.3828733,-7.10542736e-15 C46.3793,-7.10542736e-15 47.9765,1.62792667 47.9765,3.59362667 C47.9765,3.93154667 47.7000333,4.20794 47.3621867,4.20794 C47.02434,4.20794 46.7478733,3.93154667 46.7478733,3.59362667 C46.7478733,2.30362 45.67288,1.22862667 44.3828733,1.22862667 L3.59362667,1.22862667 C2.30362,1.22862667 1.22862667,2.30362 1.22862667,3.59362667 L1.22862667,35.2913 C1.22862667,36.5813067 2.30362,37.6563733 3.59362667,37.6563733 L17.0774267,37.6563733 C17.4152733,37.6563733 17.69174,37.9327667 17.69174,38.2706133 C17.69174,38.6085333 17.4152733,38.9156533 17.0774267,38.9156533 Z" id="Fill-2"></path>
                        <path d="M25.8004267,42.7242933 L22.1760733,42.7242933 C21.8382267,42.7242933 21.56176,42.4478267 21.56176,42.10998 L21.56176,38.30134 C21.56176,37.9634933 21.8382267,37.6871 22.1760733,37.6871 L25.8004267,37.6871 C26.1382733,37.6871 26.41474,37.9634933 26.41474,38.30134 L26.41474,42.10998 C26.41474,42.4478267 26.1382733,42.7242933 25.8004267,42.7242933 Z M22.7903867,41.4956667 L25.1861133,41.4956667 L25.1861133,38.9156533 L22.7903867,38.9156533 L22.7903867,41.4956667 Z" id="Fill-3"></path>
                        <path d="M34.6769867,42.7242933 L13.2995133,42.7242933 C12.9616667,42.7242933 12.6852,42.4478267 12.6852,42.10998 C12.6852,41.7721333 12.9616667,41.4956667 13.2995133,41.4956667 L34.64626,41.4956667 C34.9841067,41.4956667 35.2605733,41.7721333 35.2605733,42.10998 C35.2913,42.4478267 35.0148333,42.7242933 34.6769867,42.7242933 Z" id="Fill-4"></path>
                        <path d="M9.21440667,8.23159333 L4.26932,8.23159333 C4.17721333,8.23159333 4.11576,8.17014 4.11576,8.07803333 L4.11576,4.26939333 C4.11576,4.17721333 4.17721333,4.11583333 4.26932,4.11583333 L9.21440667,4.11583333 C9.30658667,4.11583333 9.36804,4.17721333 9.36804,4.26939333 L9.36804,8.04730667 C9.36804,8.13941333 9.30658667,8.23159333 9.21440667,8.23159333 Z M4.42295333,7.92447333 L9.06092,7.92447333 L9.06092,4.42295333 L4.42295333,4.42295333 L4.42295333,7.92447333 Z" id="Fill-5"></path>
                        <path d="M9.21440667,12.0095067 L4.26932,12.0095067 C4.17721333,12.0095067 4.11576,11.9480533 4.11576,11.8559467 L4.11576,8.07803333 C4.11576,7.98585333 4.17721333,7.92447333 4.26932,7.92447333 L9.21440667,7.92447333 C9.30658667,7.92447333 9.36804,7.98585333 9.36804,8.07803333 L9.36804,11.8559467 C9.36804,11.9480533 9.30658667,12.0095067 9.21440667,12.0095067 Z M4.42295333,11.7023867 L9.06092,11.7023867 L9.06092,8.23159333 L4.42295333,8.23159333 L4.42295333,11.7023867 Z" id="Fill-6"></path>
                        <path d="M9.21440667,15.78742 L4.26932,15.78742 C4.17721333,15.78742 4.11576,15.7259667 4.11576,15.63386 L4.11576,11.8559467 C4.11576,11.7637667 4.17721333,11.7023867 4.26932,11.7023867 L9.21440667,11.7023867 C9.30658667,11.7023867 9.36804,11.7637667 9.36804,11.8559467 L9.36804,15.63386 C9.36804,15.7259667 9.30658667,15.78742 9.21440667,15.78742 Z M4.42295333,15.4803 L9.06092,15.4803 L9.06092,12.0095067 L4.42295333,12.0095067 L4.42295333,15.4803 Z" id="Fill-7"></path>
                        <path d="M9.21440667,19.5653333 L4.26932,19.5653333 C4.17721333,19.5653333 4.11576,19.50388 4.11576,19.4117733 L4.11576,15.63386 C4.11576,15.54168 4.17721333,15.4803 4.26932,15.4803 L9.21440667,15.4803 C9.30658667,15.4803 9.36804,15.54168 9.36804,15.63386 L9.36804,19.4117733 C9.36804,19.50388 9.30658667,19.5653333 9.21440667,19.5653333 Z M4.42295333,19.2582133 L9.06092,19.2582133 L9.06092,15.78742 L4.42295333,15.78742 L4.42295333,19.2582133 Z" id="Fill-8"></path>
                        <path d="M9.21440667,23.3432467 L4.26932,23.3432467 C4.17721333,23.3432467 4.11576,23.2818667 4.11576,23.1896867 L4.11576,19.4117733 C4.11576,19.3195933 4.17721333,19.2582133 4.26932,19.2582133 L9.21440667,19.2582133 C9.30658667,19.2582133 9.36804,19.3195933 9.36804,19.4117733 L9.36804,23.1896867 C9.36804,23.2818667 9.30658667,23.3432467 9.21440667,23.3432467 Z M4.42295333,23.0361267 L9.06092,23.0361267 L9.06092,19.5653333 L4.42295333,19.5653333 L4.42295333,23.0361267 Z" id="Fill-9"></path>
                        <path d="M9.21440667,27.1518867 L4.26932,27.1518867 C4.17721333,27.1518867 4.11576,27.0904333 4.11576,26.9983267 L4.11576,23.1896867 C4.11576,23.09758 4.17721333,23.0361267 4.26932,23.0361267 L9.21440667,23.0361267 C9.30658667,23.0361267 9.36804,23.09758 9.36804,23.1896867 L9.36804,26.9676 C9.36804,27.05978 9.30658667,27.1518867 9.21440667,27.1518867 Z M4.42295333,26.8447667 L9.06092,26.8447667 L9.06092,23.3432467 L4.42295333,23.3432467 L4.42295333,26.8447667 Z" id="Fill-10"></path>
                        <path d="M9.21440667,30.9298 L4.26932,30.9298 C4.17721333,30.9298 4.11576,30.86842 4.11576,30.77624 L4.11576,26.9983267 C4.11576,26.9061467 4.17721333,26.8447667 4.26932,26.8447667 L9.21440667,26.8447667 C9.30658667,26.8447667 9.36804,26.9061467 9.36804,26.9983267 L9.36804,30.77624 C9.36804,30.86842 9.30658667,30.9298 9.21440667,30.9298 Z M4.42295333,30.62268 L9.06092,30.62268 L9.06092,27.1518867 L4.42295333,27.1518867 L4.42295333,30.62268 Z" id="Fill-11"></path>
                        <path d="M9.21440667,34.7077133 L4.26932,34.7077133 C4.17721333,34.7077133 4.11576,34.6463333 4.11576,34.5541533 L4.11576,30.77624 C4.11576,30.6841333 4.17721333,30.62268 4.26932,30.62268 L9.21440667,30.62268 C9.30658667,30.62268 9.36804,30.6841333 9.36804,30.77624 L9.36804,34.5541533 C9.36804,34.6463333 9.30658667,34.7077133 9.21440667,34.7077133 Z M4.42295333,34.4005933 L9.06092,34.4005933 L9.06092,30.9298 L4.42295333,30.9298 L4.42295333,34.4005933 Z" id="Fill-12"></path>
                        <path d="M14.1594933,8.23159333 L9.21440667,8.23159333 C9.1223,8.23159333 9.06084667,8.17014 9.06084667,8.07803333 L9.06084667,4.26939333 C9.06084667,4.17721333 9.1223,4.11583333 9.21440667,4.11583333 L14.1594933,4.11583333 C14.2516733,4.11583333 14.3131267,4.17721333 14.3131267,4.26939333 L14.3131267,8.04730667 C14.3131267,8.13941333 14.2209467,8.23159333 14.1594933,8.23159333 Z M9.36804,7.92447333 L14.0060067,7.92447333 L14.0060067,4.42295333 L9.36804,4.42295333 L9.36804,7.92447333 Z" id="Fill-13"></path>
                        <path d="M14.1594933,12.0095067 L9.21440667,12.0095067 C9.1223,12.0095067 9.06084667,11.9480533 9.06084667,11.8559467 L9.06084667,8.07803333 C9.06084667,7.98585333 9.1223,7.92447333 9.21440667,7.92447333 L14.1594933,7.92447333 C14.2516733,7.92447333 14.3131267,7.98585333 14.3131267,8.07803333 L14.3131267,11.8559467 C14.3131267,11.9480533 14.2209467,12.0095067 14.1594933,12.0095067 Z M9.36804,11.7023867 L14.0060067,11.7023867 L14.0060067,8.23159333 L9.36804,8.23159333 L9.36804,11.7023867 Z" id="Fill-14"></path>
                        <path d="M14.1594933,15.78742 L9.21440667,15.78742 C9.1223,15.78742 9.06084667,15.7259667 9.06084667,15.63386 L9.06084667,11.8559467 C9.06084667,11.7637667 9.1223,11.7023867 9.21440667,11.7023867 L14.1594933,11.7023867 C14.2516733,11.7023867 14.3131267,11.7637667 14.3131267,11.8559467 L14.3131267,15.63386 C14.3131267,15.7259667 14.2209467,15.78742 14.1594933,15.78742 Z M9.36804,15.4803 L14.0060067,15.4803 L14.0060067,12.0095067 L9.36804,12.0095067 L9.36804,15.4803 Z" id="Fill-15"></path>
                        <path d="M14.1594933,19.5653333 L9.21440667,19.5653333 C9.1223,19.5653333 9.06084667,19.50388 9.06084667,19.4117733 L9.06084667,15.63386 C9.06084667,15.54168 9.1223,15.4803 9.21440667,15.4803 L14.1594933,15.4803 C14.2516733,15.4803 14.3131267,15.54168 14.3131267,15.63386 L14.3131267,19.4117733 C14.3131267,19.50388 14.2209467,19.5653333 14.1594933,19.5653333 Z M9.36804,19.2582133 L14.0060067,19.2582133 L14.0060067,15.78742 L9.36804,15.78742 L9.36804,19.2582133 Z" id="Fill-16"></path>
                        <path d="M14.1594933,23.3432467 L9.21440667,23.3432467 C9.1223,23.3432467 9.06084667,23.2818667 9.06084667,23.1896867 L9.06084667,19.4117733 C9.06084667,19.3195933 9.1223,19.2582133 9.21440667,19.2582133 L14.1594933,19.2582133 C14.2516733,19.2582133 14.3131267,19.3195933 14.3131267,19.4117733 L14.3131267,23.1896867 C14.3131267,23.2818667 14.2209467,23.3432467 14.1594933,23.3432467 Z M9.36804,23.0361267 L14.0060067,23.0361267 L14.0060067,19.5653333 L9.36804,19.5653333 L9.36804,23.0361267 Z" id="Fill-17"></path>
                        <path d="M14.1594933,27.1518867 L9.21440667,27.1518867 C9.1223,27.1518867 9.06084667,27.0904333 9.06084667,26.9983267 L9.06084667,23.1896867 C9.06084667,23.09758 9.1223,23.0361267 9.21440667,23.0361267 L14.1594933,23.0361267 C14.2516733,23.0361267 14.3131267,23.09758 14.3131267,23.1896867 L14.3131267,26.9676 C14.3131267,27.05978 14.2209467,27.1518867 14.1594933,27.1518867 Z M9.36804,26.8447667 L14.0060067,26.8447667 L14.0060067,23.3432467 L9.36804,23.3432467 L9.36804,26.8447667 Z" id="Fill-18"></path>
                        <path d="M14.1594933,30.9298 L9.21440667,30.9298 C9.1223,30.9298 9.06084667,30.86842 9.06084667,30.77624 L9.06084667,26.9983267 C9.06084667,26.9061467 9.1223,26.8447667 9.21440667,26.8447667 L14.1594933,26.8447667 C14.2516733,26.8447667 14.3131267,26.9061467 14.3131267,26.9983267 L14.3131267,30.77624 C14.3131267,30.86842 14.2209467,30.9298 14.1594933,30.9298 Z M9.36804,30.62268 L14.0060067,30.62268 L14.0060067,27.1518867 L9.36804,27.1518867 L9.36804,30.62268 Z" id="Fill-19"></path>
                        <path d="M14.1594933,34.7077133 L9.21440667,34.7077133 C9.1223,34.7077133 9.06084667,34.6463333 9.06084667,34.5541533 L9.06084667,30.77624 C9.06084667,30.6841333 9.1223,30.62268 9.21440667,30.62268 L14.1594933,30.62268 C14.2516733,30.62268 14.3131267,30.6841333 14.3131267,30.77624 L14.3131267,34.5541533 C14.3131267,34.6463333 14.2209467,34.7077133 14.1594933,34.7077133 Z M9.36804,34.4005933 L14.0060067,34.4005933 L14.0060067,30.9298 L9.36804,30.9298 L9.36804,34.4005933 Z" id="Fill-20"></path>
                        <path d="M19.10458,8.23159333 L14.1594933,8.23159333 C14.0673867,8.23159333 14.0059333,8.17014 14.0059333,8.07803333 L14.0059333,4.26939333 C14.0059333,4.17721333 14.0673867,4.11583333 14.1594933,4.11583333 L19.10458,4.11583333 C19.19676,4.11583333 19.25814,4.17721333 19.25814,4.26939333 L19.25814,8.04730667 C19.25814,8.13941333 19.1660333,8.23159333 19.10458,8.23159333 Z M14.3131267,7.92447333 L18.9510933,7.92447333 L18.9510933,4.42295333 L14.3131267,4.42295333 L14.3131267,7.92447333 Z" id="Fill-21"></path>
                        <path d="M19.10458,12.0095067 L14.1594933,12.0095067 C14.0673867,12.0095067 14.0059333,11.9480533 14.0059333,11.8559467 L14.0059333,8.07803333 C14.0059333,7.98585333 14.0673867,7.92447333 14.1594933,7.92447333 L19.10458,7.92447333 C19.19676,7.92447333 19.25814,7.98585333 19.25814,8.07803333 L19.25814,11.8559467 C19.25814,11.9480533 19.1660333,12.0095067 19.10458,12.0095067 Z M14.3131267,11.7023867 L18.9510933,11.7023867 L18.9510933,8.23159333 L14.3131267,8.23159333 L14.3131267,11.7023867 Z" id="Fill-22"></path>
                        <path d="M19.10458,15.78742 L14.1594933,15.78742 C14.0673867,15.78742 14.0059333,15.7259667 14.0059333,15.63386 L14.0059333,11.8559467 C14.0059333,11.7637667 14.0673867,11.7023867 14.1594933,11.7023867 L19.10458,11.7023867 C19.19676,11.7023867 19.25814,11.7637667 19.25814,11.8559467 L19.25814,15.63386 C19.25814,15.7259667 19.1660333,15.78742 19.10458,15.78742 Z M14.3131267,15.4803 L18.9510933,15.4803 L18.9510933,12.0095067 L14.3131267,12.0095067 L14.3131267,15.4803 Z" id="Fill-23"></path>
                        <path d="M19.10458,19.5653333 L14.1594933,19.5653333 C14.0673867,19.5653333 14.0059333,19.50388 14.0059333,19.4117733 L14.0059333,15.63386 C14.0059333,15.54168 14.0673867,15.4803 14.1594933,15.4803 L19.10458,15.4803 C19.19676,15.4803 19.25814,15.54168 19.25814,15.63386 L19.25814,19.4117733 C19.25814,19.50388 19.1660333,19.5653333 19.10458,19.5653333 Z M14.3131267,19.2582133 L18.9510933,19.2582133 L18.9510933,15.78742 L14.3131267,15.78742 L14.3131267,19.2582133 Z" id="Fill-24"></path>
                        <path d="M19.10458,23.3432467 L14.1594933,23.3432467 C14.0673867,23.3432467 14.0059333,23.2818667 14.0059333,23.1896867 L14.0059333,19.4117733 C14.0059333,19.3195933 14.0673867,19.2582133 14.1594933,19.2582133 L19.10458,19.2582133 C19.19676,19.2582133 19.25814,19.3195933 19.25814,19.4117733 L19.25814,23.1896867 C19.25814,23.2818667 19.1660333,23.3432467 19.10458,23.3432467 Z M14.3131267,23.0361267 L18.9510933,23.0361267 L18.9510933,19.5653333 L14.3131267,19.5653333 L14.3131267,23.0361267 Z" id="Fill-25"></path>
                        <path d="M19.10458,27.1518867 L14.1594933,27.1518867 C14.0673867,27.1518867 14.0059333,27.0904333 14.0059333,26.9983267 L14.0059333,23.1896867 C14.0059333,23.09758 14.0673867,23.0361267 14.1594933,23.0361267 L19.10458,23.0361267 C19.19676,23.0361267 19.25814,23.09758 19.25814,23.1896867 L19.25814,26.9676 C19.25814,27.05978 19.1660333,27.1518867 19.10458,27.1518867 Z M14.3131267,26.8447667 L18.9510933,26.8447667 L18.9510933,23.3432467 L14.3131267,23.3432467 L14.3131267,26.8447667 Z" id="Fill-26"></path>
                        <path d="M19.10458,30.9298 L14.1594933,30.9298 C14.0673867,30.9298 14.0059333,30.86842 14.0059333,30.77624 L14.0059333,26.9983267 C14.0059333,26.9061467 14.0673867,26.8447667 14.1594933,26.8447667 L19.10458,26.8447667 C19.19676,26.8447667 19.25814,26.9061467 19.25814,26.9983267 L19.25814,30.77624 C19.25814,30.86842 19.1660333,30.9298 19.10458,30.9298 Z M14.3131267,30.62268 L18.9510933,30.62268 L18.9510933,27.1518867 L14.3131267,27.1518867 L14.3131267,30.62268 Z" id="Fill-27"></path>
                        <path d="M19.10458,34.7077133 L14.1594933,34.7077133 C14.0673867,34.7077133 14.0059333,34.6463333 14.0059333,34.5541533 L14.0059333,30.77624 C14.0059333,30.6841333 14.0673867,30.62268 14.1594933,30.62268 L19.10458,30.62268 C19.19676,30.62268 19.25814,30.6841333 19.25814,30.77624 L19.25814,34.5541533 C19.25814,34.6463333 19.1660333,34.7077133 19.10458,34.7077133 Z M14.3131267,34.4005933 L18.9510933,34.4005933 L18.9510933,30.9298 L14.3131267,30.9298 L14.3131267,34.4005933 Z" id="Fill-28"></path>
                        <path d="M24.0496667,8.23159333 L19.10458,8.23159333 C19.0124733,8.23159333 18.95102,8.17014 18.95102,8.07803333 L18.95102,4.26939333 C18.95102,4.17721333 19.0124733,4.11583333 19.10458,4.11583333 L24.0496667,4.11583333 C24.1418467,4.11583333 24.2032267,4.17721333 24.2032267,4.26939333 L24.2032267,8.04730667 C24.2032267,8.13941333 24.11112,8.23159333 24.0496667,8.23159333 Z M19.25814,7.92447333 L23.8961067,7.92447333 L23.8961067,4.42295333 L19.25814,4.42295333 L19.25814,7.92447333 Z" id="Fill-29"></path>
                        <path d="M24.0496667,12.0095067 L19.10458,12.0095067 C19.0124733,12.0095067 18.95102,11.9480533 18.95102,11.8559467 L18.95102,8.07803333 C18.95102,7.98585333 19.0124733,7.92447333 19.10458,7.92447333 L24.0496667,7.92447333 C24.1418467,7.92447333 24.2032267,7.98585333 24.2032267,8.07803333 L24.2032267,11.8559467 C24.2032267,11.9480533 24.11112,12.0095067 24.0496667,12.0095067 Z M19.25814,11.7023867 L23.8961067,11.7023867 L23.8961067,8.23159333 L19.25814,8.23159333 L19.25814,11.7023867 Z" id="Fill-30"></path>
                        <path d="M24.0496667,15.78742 L19.10458,15.78742 C19.0124733,15.78742 18.95102,15.7259667 18.95102,15.63386 L18.95102,11.8559467 C18.95102,11.7637667 19.0124733,11.7023867 19.10458,11.7023867 L24.0496667,11.7023867 C24.1418467,11.7023867 24.2032267,11.7637667 24.2032267,11.8559467 L24.2032267,15.63386 C24.2032267,15.7259667 24.11112,15.78742 24.0496667,15.78742 Z M19.25814,15.4803 L23.8961067,15.4803 L23.8961067,12.0095067 L19.25814,12.0095067 L19.25814,15.4803 Z" id="Fill-31"></path>
                        <path d="M24.0496667,19.5653333 L19.10458,19.5653333 C19.0124733,19.5653333 18.95102,19.50388 18.95102,19.4117733 L18.95102,15.63386 C18.95102,15.54168 19.0124733,15.4803 19.10458,15.4803 L24.0496667,15.4803 C24.1418467,15.4803 24.2032267,15.54168 24.2032267,15.63386 L24.2032267,19.4117733 C24.2032267,19.50388 24.11112,19.5653333 24.0496667,19.5653333 Z M19.25814,19.2582133 L23.8961067,19.2582133 L23.8961067,15.78742 L19.25814,15.78742 L19.25814,19.2582133 Z" id="Fill-32"></path>
                        <path d="M24.0496667,23.3432467 L19.10458,23.3432467 C19.0124733,23.3432467 18.95102,23.2818667 18.95102,23.1896867 L18.95102,19.4117733 C18.95102,19.3195933 19.0124733,19.2582133 19.10458,19.2582133 L24.0496667,19.2582133 C24.1418467,19.2582133 24.2032267,19.3195933 24.2032267,19.4117733 L24.2032267,23.1896867 C24.2032267,23.2818667 24.11112,23.3432467 24.0496667,23.3432467 Z M19.25814,23.0361267 L23.8961067,23.0361267 L23.8961067,19.5653333 L19.25814,19.5653333 L19.25814,23.0361267 Z" id="Fill-33"></path>
                        <path d="M24.0496667,27.1518867 L19.10458,27.1518867 C19.0124733,27.1518867 18.95102,27.0904333 18.95102,26.9983267 L18.95102,23.1896867 C18.95102,23.09758 19.0124733,23.0361267 19.10458,23.0361267 L24.0496667,23.0361267 C24.1418467,23.0361267 24.2032267,23.09758 24.2032267,23.1896867 L24.2032267,26.9676 C24.2032267,27.05978 24.11112,27.1518867 24.0496667,27.1518867 Z M19.25814,26.8447667 L23.8961067,26.8447667 L23.8961067,23.3432467 L19.25814,23.3432467 L19.25814,26.8447667 Z" id="Fill-34"></path>
                        <path d="M24.0496667,30.9298 L19.10458,30.9298 C19.0124733,30.9298 18.95102,30.86842 18.95102,30.77624 L18.95102,26.9983267 C18.95102,26.9061467 19.0124733,26.8447667 19.10458,26.8447667 L24.0496667,26.8447667 C24.1418467,26.8447667 24.2032267,26.9061467 24.2032267,26.9983267 L24.2032267,30.77624 C24.2032267,30.86842 24.11112,30.9298 24.0496667,30.9298 Z M19.25814,30.62268 L23.8961067,30.62268 L23.8961067,27.1518867 L19.25814,27.1518867 L19.25814,30.62268 Z" id="Fill-35"></path>
                        <path d="M24.0496667,34.7077133 L19.10458,34.7077133 C19.0124733,34.7077133 18.95102,34.6463333 18.95102,34.5541533 L18.95102,30.77624 C18.95102,30.6841333 19.0124733,30.62268 19.10458,30.62268 L24.0496667,30.62268 C24.1418467,30.62268 24.2032267,30.6841333 24.2032267,30.77624 L24.2032267,34.5541533 C24.2032267,34.6463333 24.11112,34.7077133 24.0496667,34.7077133 Z M19.25814,34.4005933 L23.8961067,34.4005933 L23.8961067,30.9298 L19.25814,30.9298 L19.25814,34.4005933 Z" id="Fill-36"></path>
                        <path d="M28.9947533,8.23159333 L24.0496667,8.23159333 C23.95756,8.23159333 23.8961067,8.17014 23.8961067,8.07803333 L23.8961067,4.26939333 C23.8961067,4.17721333 23.95756,4.11583333 24.0496667,4.11583333 L28.9947533,4.11583333 C29.0869333,4.11583333 29.1483133,4.17721333 29.1483133,4.26939333 L29.1483133,8.04730667 C29.1483133,8.13941333 29.0562067,8.23159333 28.9947533,8.23159333 Z M24.2032267,7.92447333 L28.8411933,7.92447333 L28.8411933,4.42295333 L24.2032267,4.42295333 L24.2032267,7.92447333 Z" id="Fill-37"></path>
                        <path d="M28.9947533,12.0095067 L24.0496667,12.0095067 C23.95756,12.0095067 23.8961067,11.9480533 23.8961067,11.8559467 L23.8961067,8.07803333 C23.8961067,7.98585333 23.95756,7.92447333 24.0496667,7.92447333 L28.9947533,7.92447333 C29.0869333,7.92447333 29.1483133,7.98585333 29.1483133,8.07803333 L29.1483133,11.8559467 C29.1483133,11.9480533 29.0562067,12.0095067 28.9947533,12.0095067 Z M24.2032267,11.7023867 L28.8411933,11.7023867 L28.8411933,8.23159333 L24.2032267,8.23159333 L24.2032267,11.7023867 Z" id="Fill-38"></path>
                        <path d="M28.9947533,15.78742 L24.0496667,15.78742 C23.95756,15.78742 23.8961067,15.7259667 23.8961067,15.63386 L23.8961067,11.8559467 C23.8961067,11.7637667 23.95756,11.7023867 24.0496667,11.7023867 L28.9947533,11.7023867 C29.0869333,11.7023867 29.1483133,11.7637667 29.1483133,11.8559467 L29.1483133,15.63386 C29.1483133,15.7259667 29.0562067,15.78742 28.9947533,15.78742 Z M24.2032267,15.4803 L28.8411933,15.4803 L28.8411933,12.0095067 L24.2032267,12.0095067 L24.2032267,15.4803 Z" id="Fill-39"></path>
                        <path d="M28.9947533,19.5653333 L24.0496667,19.5653333 C23.95756,19.5653333 23.8961067,19.50388 23.8961067,19.4117733 L23.8961067,15.63386 C23.8961067,15.54168 23.95756,15.4803 24.0496667,15.4803 L28.9947533,15.4803 C29.0869333,15.4803 29.1483133,15.54168 29.1483133,15.63386 L29.1483133,19.4117733 C29.1483133,19.50388 29.0562067,19.5653333 28.9947533,19.5653333 Z M24.2032267,19.2582133 L28.8411933,19.2582133 L28.8411933,15.78742 L24.2032267,15.78742 L24.2032267,19.2582133 Z" id="Fill-40"></path>
                        <path d="M28.9947533,23.3432467 L24.0496667,23.3432467 C23.95756,23.3432467 23.8961067,23.2818667 23.8961067,23.1896867 L23.8961067,19.4117733 C23.8961067,19.3195933 23.95756,19.2582133 24.0496667,19.2582133 L28.9947533,19.2582133 C29.0869333,19.2582133 29.1483133,19.3195933 29.1483133,19.4117733 L29.1483133,23.1896867 C29.1483133,23.2818667 29.0562067,23.3432467 28.9947533,23.3432467 Z M24.2032267,23.0361267 L28.8411933,23.0361267 L28.8411933,19.5653333 L24.2032267,19.5653333 L24.2032267,23.0361267 Z" id="Fill-41"></path>
                        <path d="M28.9947533,27.1518867 L24.0496667,27.1518867 C23.95756,27.1518867 23.8961067,27.0904333 23.8961067,26.9983267 L23.8961067,23.1896867 C23.8961067,23.09758 23.95756,23.0361267 24.0496667,23.0361267 L28.9947533,23.0361267 C29.0869333,23.0361267 29.1483133,23.09758 29.1483133,23.1896867 L29.1483133,26.9676 C29.1483133,27.05978 29.0562067,27.1518867 28.9947533,27.1518867 Z M24.2032267,26.8447667 L28.8411933,26.8447667 L28.8411933,23.3432467 L24.2032267,23.3432467 L24.2032267,26.8447667 Z" id="Fill-42"></path>
                        <path d="M28.9947533,34.7077133 L24.0496667,34.7077133 C23.95756,34.7077133 23.8961067,34.6463333 23.8961067,34.5541533 L23.8961067,30.77624 C23.8961067,30.6841333 23.95756,30.62268 24.0496667,30.62268 L28.9947533,30.62268 C29.0869333,30.62268 29.1483133,30.6841333 29.1483133,30.77624 L29.1483133,34.5541533 C29.1483133,34.6463333 29.0562067,34.7077133 28.9947533,34.7077133 Z M24.2032267,34.4005933 L28.8411933,34.4005933 L28.8411933,30.9298 L24.2032267,30.9298 L24.2032267,34.4005933 Z" id="Fill-43"></path>
                        <path d="M33.93984,8.23159333 L28.9947533,8.23159333 C28.9026467,8.23159333 28.8411933,8.17014 28.8411933,8.07803333 L28.8411933,4.26939333 C28.8411933,4.17721333 28.9026467,4.11583333 28.9947533,4.11583333 L33.93984,4.11583333 C34.0319467,4.11583333 34.0934,4.17721333 34.0934,4.26939333 L34.0934,8.04730667 C34.0934,8.13941333 34.0012933,8.23159333 33.93984,8.23159333 Z M29.1483133,7.92447333 L33.78628,7.92447333 L33.78628,4.42295333 L29.1483133,4.42295333 L29.1483133,7.92447333 Z" id="Fill-44"></path>
                        <path d="M33.93984,12.0095067 L28.9947533,12.0095067 C28.9026467,12.0095067 28.8411933,11.9480533 28.8411933,11.8559467 L28.8411933,8.07803333 C28.8411933,7.98585333 28.9026467,7.92447333 28.9947533,7.92447333 L33.93984,7.92447333 C34.0319467,7.92447333 34.0934,7.98585333 34.0934,8.07803333 L34.0934,11.8559467 C34.0934,11.9480533 34.0012933,12.0095067 33.93984,12.0095067 Z M29.1483133,11.7023867 L33.78628,11.7023867 L33.78628,8.23159333 L29.1483133,8.23159333 L29.1483133,11.7023867 Z" id="Fill-45"></path>
                        <path d="M33.93984,15.78742 L28.9947533,15.78742 C28.9026467,15.78742 28.8411933,15.7259667 28.8411933,15.63386 L28.8411933,11.8559467 C28.8411933,11.7637667 28.9026467,11.7023867 28.9947533,11.7023867 L33.93984,11.7023867 C34.0319467,11.7023867 34.0934,11.7637667 34.0934,11.8559467 L34.0934,15.63386 C34.0934,15.7259667 34.0012933,15.78742 33.93984,15.78742 Z M29.1483133,15.4803 L33.78628,15.4803 L33.78628,12.0095067 L29.1483133,12.0095067 L29.1483133,15.4803 Z" id="Fill-46"></path>
                        <path d="M33.93984,19.5653333 L28.9947533,19.5653333 C28.9026467,19.5653333 28.8411933,19.50388 28.8411933,19.4117733 L28.8411933,15.63386 C28.8411933,15.54168 28.9026467,15.4803 28.9947533,15.4803 L33.93984,15.4803 C34.0319467,15.4803 34.0934,15.54168 34.0934,15.63386 L34.0934,19.4117733 C34.0934,19.50388 34.0012933,19.5653333 33.93984,19.5653333 Z M29.1483133,19.2582133 L33.78628,19.2582133 L33.78628,15.78742 L29.1483133,15.78742 L29.1483133,19.2582133 Z" id="Fill-47"></path>
                        <path d="M33.93984,23.3432467 L28.9947533,23.3432467 C28.9026467,23.3432467 28.8411933,23.2818667 28.8411933,23.1896867 L28.8411933,19.4117733 C28.8411933,19.3195933 28.9026467,19.2582133 28.9947533,19.2582133 L33.93984,19.2582133 C34.0319467,19.2582133 34.0934,19.3195933 34.0934,19.4117733 L34.0934,23.1896867 C34.0934,23.2818667 34.0012933,23.3432467 33.93984,23.3432467 Z M29.1483133,23.0361267 L33.78628,23.0361267 L33.78628,19.5653333 L29.1483133,19.5653333 L29.1483133,23.0361267 Z" id="Fill-48"></path>
                        <path d="M33.93984,27.1518867 L28.9947533,27.1518867 C28.9026467,27.1518867 28.8411933,27.0904333 28.8411933,26.9983267 L28.8411933,23.1896867 C28.8411933,23.09758 28.9026467,23.0361267 28.9947533,23.0361267 L33.93984,23.0361267 C34.0319467,23.0361267 34.0934,23.09758 34.0934,23.1896867 L34.0934,26.9676 C34.0934,27.05978 34.0012933,27.1518867 33.93984,27.1518867 Z M29.1483133,26.8447667 L33.78628,26.8447667 L33.78628,23.3432467 L29.1483133,23.3432467 L29.1483133,26.8447667 Z" id="Fill-49"></path>
                        <path d="M33.93984,30.9298 L28.9947533,30.9298 C28.9026467,30.9298 28.8411933,30.86842 28.8411933,30.77624 L28.8411933,26.9983267 C28.8411933,26.9061467 28.9026467,26.8447667 28.9947533,26.8447667 L33.93984,26.8447667 C34.0319467,26.8447667 34.0934,26.9061467 34.0934,26.9983267 L34.0934,30.77624 C34.0934,30.86842 34.0012933,30.9298 33.93984,30.9298 Z M29.1483133,30.62268 L33.78628,30.62268 L33.78628,27.1518867 L29.1483133,27.1518867 L29.1483133,30.62268 Z" id="Fill-50"></path>
                        <path d="M33.93984,34.7077133 L28.9947533,34.7077133 C28.9026467,34.7077133 28.8411933,34.6463333 28.8411933,34.5541533 L28.8411933,30.77624 C28.8411933,30.6841333 28.9026467,30.62268 28.9947533,30.62268 L33.93984,30.62268 C34.0319467,30.62268 34.0934,30.6841333 34.0934,30.77624 L34.0934,34.5541533 C34.0934,34.6463333 34.0012933,34.7077133 33.93984,34.7077133 Z M29.1483133,34.4005933 L33.78628,34.4005933 L33.78628,30.9298 L29.1483133,30.9298 L29.1483133,34.4005933 Z" id="Fill-51"></path>
                        <path d="M38.8542,8.23159333 L33.9091133,8.23159333 C33.8170067,8.23159333 33.7555533,8.17014 33.7555533,8.07803333 L33.7555533,4.26939333 C33.7555533,4.17721333 33.8170067,4.11583333 33.9091133,4.11583333 L38.8542,4.11583333 C38.94638,4.11583333 39.00776,4.17721333 39.00776,4.26939333 L39.00776,8.04730667 C39.00776,8.13941333 38.94638,8.23159333 38.8542,8.23159333 Z M34.0934,7.92447333 L38.70064,7.92447333 L38.70064,4.42295333 L34.0934,4.42295333 L34.0934,7.92447333 Z" id="Fill-52"></path>
                        <path d="M38.8542,12.0095067 L33.9091133,12.0095067 C33.8170067,12.0095067 33.7555533,11.9480533 33.7555533,11.8559467 L33.7555533,8.07803333 C33.7555533,7.98585333 33.8170067,7.92447333 33.9091133,7.92447333 L38.8542,7.92447333 C38.94638,7.92447333 39.00776,7.98585333 39.00776,8.07803333 L39.00776,11.8559467 C39.00776,11.9480533 38.94638,12.0095067 38.8542,12.0095067 Z M34.0934,11.7023867 L38.70064,11.7023867 L38.70064,8.23159333 L34.0934,8.23159333 L34.0934,11.7023867 Z" id="Fill-53"></path>
                        <path d="M38.8542,15.78742 L33.9091133,15.78742 C33.8170067,15.78742 33.7555533,15.7259667 33.7555533,15.63386 L33.7555533,11.8559467 C33.7555533,11.7637667 33.8170067,11.7023867 33.9091133,11.7023867 L38.8542,11.7023867 C38.94638,11.7023867 39.00776,11.7637667 39.00776,11.8559467 L39.00776,15.63386 C39.00776,15.7259667 38.94638,15.78742 38.8542,15.78742 Z M34.0934,15.4803 L38.70064,15.4803 L38.70064,12.0095067 L34.0934,12.0095067 L34.0934,15.4803 Z" id="Fill-54"></path>
                        <path d="M38.8542,19.5653333 L33.9091133,19.5653333 C33.8170067,19.5653333 33.7555533,19.50388 33.7555533,19.4117733 L33.7555533,15.63386 C33.7555533,15.54168 33.8170067,15.4803 33.9091133,15.4803 L38.8542,15.4803 C38.94638,15.4803 39.00776,15.54168 39.00776,15.63386 L39.00776,19.4117733 C39.00776,19.50388 38.94638,19.5653333 38.8542,19.5653333 Z M34.0934,19.2582133 L38.70064,19.2582133 L38.70064,15.78742 L34.0934,15.78742 L34.0934,19.2582133 Z" id="Fill-55"></path>
                        <path d="M38.8542,23.3432467 L33.9091133,23.3432467 C33.8170067,23.3432467 33.7555533,23.2818667 33.7555533,23.1896867 L33.7555533,19.4117733 C33.7555533,19.3195933 33.8170067,19.2582133 33.9091133,19.2582133 L38.8542,19.2582133 C38.94638,19.2582133 39.00776,19.3195933 39.00776,19.4117733 L39.00776,23.1896867 C39.00776,23.2818667 38.94638,23.3432467 38.8542,23.3432467 Z M34.0934,23.0361267 L38.70064,23.0361267 L38.70064,19.5653333 L34.0934,19.5653333 L34.0934,23.0361267 Z" id="Fill-56"></path>
                        <path d="M38.8542,27.1518867 L33.9091133,27.1518867 C33.8170067,27.1518867 33.7555533,27.0904333 33.7555533,26.9983267 L33.7555533,23.1896867 C33.7555533,23.09758 33.8170067,23.0361267 33.9091133,23.0361267 L38.8542,23.0361267 C38.94638,23.0361267 39.00776,23.09758 39.00776,23.1896867 L39.00776,26.9676 C39.00776,27.05978 38.94638,27.1518867 38.8542,27.1518867 Z M34.0934,26.8447667 L38.70064,26.8447667 L38.70064,23.3432467 L34.0934,23.3432467 L34.0934,26.8447667 Z" id="Fill-57"></path>
                        <path d="M38.8542,30.9298 L33.9091133,30.9298 C33.8170067,30.9298 33.7555533,30.86842 33.7555533,30.77624 L33.7555533,26.9983267 C33.7555533,26.9061467 33.8170067,26.8447667 33.9091133,26.8447667 L38.8542,26.8447667 C38.94638,26.8447667 39.00776,26.9061467 39.00776,26.9983267 L39.00776,30.77624 C39.00776,30.86842 38.94638,30.9298 38.8542,30.9298 Z M34.0934,30.62268 L38.70064,30.62268 L38.70064,27.1518867 L34.0934,27.1518867 L34.0934,30.62268 Z" id="Fill-58"></path>
                        <path d="M38.8542,34.7077133 L33.9091133,34.7077133 C33.8170067,34.7077133 33.7555533,34.6463333 33.7555533,34.5541533 L33.7555533,30.77624 C33.7555533,30.6841333 33.8170067,30.62268 33.9091133,30.62268 L38.8542,30.62268 C38.94638,30.62268 39.00776,30.6841333 39.00776,30.77624 L39.00776,34.5541533 C39.00776,34.6463333 38.94638,34.7077133 38.8542,34.7077133 Z M34.0934,34.4005933 L38.70064,34.4005933 L38.70064,30.9298 L34.0934,30.9298 L34.0934,34.4005933 Z" id="Fill-59"></path>
                        <path d="M43.7992867,8.23159333 L38.8542,8.23159333 C38.7620933,8.23159333 38.70064,8.17014 38.70064,8.07803333 L38.70064,4.26939333 C38.70064,4.17721333 38.7620933,4.11583333 38.8542,4.11583333 L43.7992867,4.11583333 C43.8913933,4.11583333 43.9528467,4.17721333 43.9528467,4.26939333 L43.9528467,8.04730667 C43.9528467,8.13941333 43.8913933,8.23159333 43.7992867,8.23159333 Z M39.00776,7.92447333 L43.6457267,7.92447333 L43.6457267,4.42295333 L39.00776,4.42295333 L39.00776,7.92447333 Z" id="Fill-60"></path>
                        <path d="M43.7992867,12.0095067 L38.8542,12.0095067 C38.7620933,12.0095067 38.70064,11.9480533 38.70064,11.8559467 L38.70064,8.07803333 C38.70064,7.98585333 38.7620933,7.92447333 38.8542,7.92447333 L43.7992867,7.92447333 C43.8913933,7.92447333 43.9528467,7.98585333 43.9528467,8.07803333 L43.9528467,11.8559467 C43.9528467,11.9480533 43.8913933,12.0095067 43.7992867,12.0095067 Z M39.00776,11.7023867 L43.6457267,11.7023867 L43.6457267,8.23159333 L39.00776,8.23159333 L39.00776,11.7023867 Z" id="Fill-61"></path>
                        <path d="M43.7992867,15.78742 L38.8542,15.78742 C38.7620933,15.78742 38.70064,15.7259667 38.70064,15.63386 L38.70064,11.8559467 C38.70064,11.7637667 38.7620933,11.7023867 38.8542,11.7023867 L43.7992867,11.7023867 C43.8913933,11.7023867 43.9528467,11.7637667 43.9528467,11.8559467 L43.9528467,15.63386 C43.9528467,15.7259667 43.8913933,15.78742 43.7992867,15.78742 Z M39.00776,15.4803 L43.6457267,15.4803 L43.6457267,12.0095067 L39.00776,12.0095067 L39.00776,15.4803 Z" id="Fill-62"></path>
                        <path d="M43.7992867,19.5653333 L38.8542,19.5653333 C38.7620933,19.5653333 38.70064,19.50388 38.70064,19.4117733 L38.70064,15.63386 C38.70064,15.54168 38.7620933,15.4803 38.8542,15.4803 L43.7992867,15.4803 C43.8913933,15.4803 43.9528467,15.54168 43.9528467,15.63386 L43.9528467,19.4117733 C43.9528467,19.50388 43.8913933,19.5653333 43.7992867,19.5653333 Z M39.00776,19.2582133 L43.6457267,19.2582133 L43.6457267,15.78742 L39.00776,15.78742 L39.00776,19.2582133 Z" id="Fill-63"></path>
                        <path d="M43.7992867,23.3432467 L38.8542,23.3432467 C38.7620933,23.3432467 38.70064,23.2818667 38.70064,23.1896867 L38.70064,19.4117733 C38.70064,19.3195933 38.7620933,19.2582133 38.8542,19.2582133 L43.7992867,19.2582133 C43.8913933,19.2582133 43.9528467,19.3195933 43.9528467,19.4117733 L43.9528467,23.1896867 C43.9528467,23.2818667 43.8913933,23.3432467 43.7992867,23.3432467 Z M39.00776,23.0361267 L43.6457267,23.0361267 L43.6457267,19.5653333 L39.00776,19.5653333 L39.00776,23.0361267 Z" id="Fill-64"></path>
                        <path d="M43.7992867,27.1518867 L38.8542,27.1518867 C38.7620933,27.1518867 38.70064,27.0904333 38.70064,26.9983267 L38.70064,23.1896867 C38.70064,23.09758 38.7620933,23.0361267 38.8542,23.0361267 L43.7992867,23.0361267 C43.8913933,23.0361267 43.9528467,23.09758 43.9528467,23.1896867 L43.9528467,26.9676 C43.9528467,27.05978 43.8913933,27.1518867 43.7992867,27.1518867 Z M39.00776,26.8447667 L43.6457267,26.8447667 L43.6457267,23.3432467 L39.00776,23.3432467 L39.00776,26.8447667 Z" id="Fill-65"></path>
                        <path d="M43.7992867,30.9298 L38.8542,30.9298 C38.7620933,30.9298 38.70064,30.86842 38.70064,30.77624 L38.70064,26.9983267 C38.70064,26.9061467 38.7620933,26.8447667 38.8542,26.8447667 L43.7992867,26.8447667 C43.8913933,26.8447667 43.9528467,26.9061467 43.9528467,26.9983267 L43.9528467,30.77624 C43.9528467,30.86842 43.8913933,30.9298 43.7992867,30.9298 Z M39.00776,30.62268 L43.6457267,30.62268 L43.6457267,27.1518867 L39.00776,27.1518867 L39.00776,30.62268 Z" id="Fill-66"></path>
                        <path d="M43.7992867,34.7077133 L38.8542,34.7077133 C38.7620933,34.7077133 38.70064,34.6463333 38.70064,34.5541533 L38.70064,30.77624 C38.70064,30.6841333 38.7620933,30.62268 38.8542,30.62268 L43.7992867,30.62268 C43.8913933,30.62268 43.9528467,30.6841333 43.9528467,30.77624 L43.9528467,34.5541533 C43.9528467,34.6463333 43.8913933,34.7077133 43.7992867,34.7077133 Z M39.00776,34.4005933 L43.6457267,34.4005933 L43.6457267,30.9298 L39.00776,30.9298 L39.00776,34.4005933 Z" id="Fill-67"></path>
                        <path d="M3.5629,29.8855333 C3.28650667,29.8855333 3.01004,29.67052 2.94858667,29.3940533 C2.88720667,29.0562067 3.10222,28.7490867 3.44006667,28.6569067 L9.21440667,27.4897333 L12.1937933,24.0190133 C12.2859,23.8961067 12.43946,23.8347267 12.5930933,23.804 L18.9202933,23.1282333 L22.75966,16.18672 C22.91322,15.9102533 23.2204133,15.8181467 23.4968067,15.9102533 L28.7490133,17.7531933 L33.54054,11.5181 C33.6633733,11.3338133 33.8783867,11.2416333 34.0934,11.27236 L36.9806067,11.6409333 L53.5051733,1.87359333 C53.8122933,1.68930667 54.1808667,1.81221333 54.3344267,2.08860667 C54.5187133,2.3958 54.39588,2.76437333 54.1194867,2.91793333 L37.4106333,12.8081067 C37.2877267,12.8694867 37.1648933,12.9002133 37.0113333,12.9002133 L34.2776867,12.53164 L29.4555067,18.88964 C29.3018733,19.1046533 29.02548,19.19676 28.77974,19.1046533 L23.5889867,17.29244 L19.8724533,24.04974 C19.7803467,24.2340267 19.59606,24.35686 19.4117733,24.35686 L12.99232,25.0325533 L10.0437333,28.47262 C9.95162667,28.5648 9.82872,28.6569067 9.70588667,28.6876333 L3.68580667,29.8548067 C3.65508,29.8548067 3.59362667,29.8855333 3.5629,29.8855333 Z" id="Fill-68"></path>
                    </g>
                </g>
            </g>
        </g>
    </g>
</svg>